<svg width="41" height="41" viewBox="0 0 41 41" fill="none" xmlns="http://www.w3.org/2000/svg">
<rect x="0.666687" y="0.72998" width="40" height="40" rx="20" fill="white"/>
<path d="M16.1667 15.73C16.1667 18.211 18.1857 20.23 20.6667 20.23C23.1477 20.23 25.1667 18.211 25.1667 15.73C25.1667 13.249 23.1477 11.23 20.6667 11.23C18.1857 11.23 16.1667 13.249 16.1667 15.73ZM28.6667 30.23H29.6667V29.23C29.6667 25.371 26.5257 22.23 22.6667 22.23H18.6667C14.8067 22.23 11.6667 25.371 11.6667 29.23V30.23H28.6667Z" fill="#4E5D64"/>
<rect x="1.16669" y="1.22998" width="39" height="39" rx="19.5" stroke="#4E5D64" stroke-opacity="0.5"/>
</svg>
